%FSDAX24Y24*%
%MOIN*%
%SFA1B1*%

%IPPOS*%
%ADD10R,0.035433X0.030000*%
%ADD11R,0.051181X0.055118*%
%ADD12R,0.078740X0.118110*%
%ADD13R,0.030000X0.035433*%
%ADD14O,0.086614X0.023622*%
%ADD15R,0.062992X0.094488*%
%ADD16R,0.039370X0.049212*%
%ADD17R,0.062992X0.062992*%
%ADD18R,0.125984X0.094488*%
%ADD19R,0.118110X0.078740*%
%ADD20R,0.150000X0.196850*%
%ADD21O,0.015748X0.061024*%
%ADD22R,0.015748X0.061024*%
%ADD23R,0.035433X0.015748*%
%ADD24R,0.062992X0.062992*%
%ADD25R,0.051181X0.023622*%
%ADD26R,0.070866X0.078740*%
%ADD27R,0.086614X0.023622*%
%ADD28O,0.086614X0.023622*%
%ADD29O,0.021654X0.064960*%
%ADD30O,0.064960X0.021654*%
%ADD31R,0.098425X0.094488*%
%ADD32R,0.023622X0.086614*%
%ADD33O,0.023622X0.086614*%
%ADD34C,0.015748*%
%ADD35C,0.019685*%
%ADD36C,0.039370*%
%ADD37C,0.078740*%
%ADD38C,0.031496*%
%ADD39C,0.023622*%
%ADD40C,0.027559*%
%ADD41C,0.007874*%
%ADD42C,0.051181*%
%ADD43C,0.062000*%
%ADD44R,0.062000X0.062000*%
%ADD45R,0.059055X0.059055*%
%ADD46C,0.059055*%
%ADD47C,0.055118*%
%ADD48C,0.200000*%
%ADD49C,0.078740*%
%ADD50R,0.078740X0.078740*%
%ADD51R,0.059055X0.059055*%
%ADD52C,0.129921*%
%ADD53C,0.050000*%
%ADD106C,0.005000*%
%ADD107C,0.010000*%
%ADD108C,0.020000*%
%ADD109C,0.040000*%
%LNmppt-ng_controlboard-1*%
%LPD*%
G54D106*
X056943Y060182D02*
X056943Y060182D01*
X054896*
Y057573*
X055821*
Y055768*
X055827Y055769*
X055250Y055771*
Y055733*
X054620*
Y054679*
X057366*
X057356Y054682*
Y054251*
Y052179*
X059620*
X059626Y052171*
X060062*
Y048765*
X057724*
X057721Y048772*
Y049887*
X055635*
Y051037*
X056284*
Y052179*
X056292*
Y054276*
X054257*
Y055724*
Y055746*
Y056487*
Y057607*
Y060157*
Y060978*
X056943*
Y060182*
G54D107*
X056893Y060232D02*
X054846D01*
Y057523*
X055771*
Y055704*
X056238Y055818*
X055200Y055821*
Y055783*
X054570*
Y054629*
X057687*
X057306Y054751*
Y054251*
Y052129*
X059594*
X059600Y052121*
X060012*
Y048815*
X057760*
X057771Y048780*
Y049937*
X055685*
Y050987*
X056334*
Y052129*
X056342*
Y054326*
X054307*
Y055724*
Y055746*
Y056487*
Y057607*
Y060157*
Y060928*
X056893*
Y060232*
X054360Y054350D02*
Y060930D01*
X054460Y054350D02*
Y060930D01*
X054560Y054350D02*
Y060930D01*
X054660Y054350D02*
Y054620D01*
Y055790D02*
Y060930D01*
X054760Y054350D02*
Y054620D01*
Y055790D02*
Y060930D01*
X054860Y054350D02*
Y054620D01*
Y055790D02*
Y057500D01*
Y060250D02*
Y060930D01*
X054960Y054350D02*
Y054620D01*
Y055790D02*
Y057500D01*
Y060250D02*
Y060930D01*
X055060Y054350D02*
Y054620D01*
Y055790D02*
Y057500D01*
Y060250D02*
Y060930D01*
X055160Y054350D02*
Y054620D01*
Y055790D02*
Y057500D01*
Y060250D02*
Y060930D01*
X055260Y054350D02*
Y054620D01*
Y055830D02*
Y057500D01*
Y060250D02*
Y060930D01*
X055360Y054350D02*
Y054620D01*
Y055830D02*
Y057500D01*
Y060250D02*
Y060930D01*
X055460Y054350D02*
Y054620D01*
Y055830D02*
Y057500D01*
Y060250D02*
Y060930D01*
X055560Y054350D02*
Y054620D01*
Y055830D02*
Y057500D01*
Y060250D02*
Y060930D01*
X055660Y054350D02*
Y054620D01*
Y055830D02*
Y057500D01*
Y060250D02*
Y060930D01*
X055760Y049950D02*
Y050980D01*
Y054350D02*
Y054620D01*
Y055830D02*
Y057500D01*
Y060250D02*
Y060930D01*
X055860Y049950D02*
Y050980D01*
Y054350D02*
Y054620D01*
Y055750D02*
Y055800D01*
Y060250D02*
Y060930D01*
X055960Y049950D02*
Y050980D01*
Y054350D02*
Y054620D01*
Y055770D02*
Y055800D01*
Y060250D02*
Y060930D01*
X056060Y049950D02*
Y050980D01*
Y054350D02*
Y054620D01*
Y055790D02*
Y055800D01*
Y060250D02*
Y060930D01*
X056160Y049950D02*
Y050980D01*
Y054350D02*
Y054620D01*
Y055810D02*
Y055800D01*
Y060250D02*
Y060930D01*
X056260Y049950D02*
Y050980D01*
Y054350D02*
Y054620D01*
Y060250D02*
Y060930D01*
X056360Y049950D02*
Y054620D01*
Y060250D02*
Y060930D01*
X056460Y049950D02*
Y054620D01*
Y060250D02*
Y060930D01*
X056560Y049950D02*
Y054620D01*
Y060250D02*
Y060930D01*
X056660Y049950D02*
Y054620D01*
Y060250D02*
Y060930D01*
X056760Y049950D02*
Y054620D01*
Y060250D02*
Y060930D01*
X056860Y049950D02*
Y054620D01*
Y060250D02*
Y060930D01*
X056960Y049950D02*
Y054620D01*
X057060Y049950D02*
Y054620D01*
X057160Y049950D02*
Y054620D01*
X057260Y049950D02*
Y054620D01*
X057360Y049950D02*
Y052120D01*
Y054650D02*
Y054720D01*
X057460Y049950D02*
Y052120D01*
Y054650D02*
Y054700D01*
X057560Y049950D02*
Y052120D01*
Y054650D02*
Y054660D01*
X057660Y049950D02*
Y052120D01*
X057760Y049950D02*
Y052120D01*
X057860Y048830D02*
Y052120D01*
X057960Y048830D02*
Y052120D01*
X058060Y048830D02*
Y052120D01*
X058160Y048830D02*
Y052120D01*
X058260Y048830D02*
Y052120D01*
X058360Y048830D02*
Y052120D01*
X058460Y048830D02*
Y052120D01*
X058560Y048830D02*
Y052120D01*
X058660Y048830D02*
Y052120D01*
X058760Y048830D02*
Y052120D01*
X058860Y048830D02*
Y052120D01*
X058960Y048830D02*
Y052120D01*
X059060Y048830D02*
Y052120D01*
X059160Y048830D02*
Y052120D01*
X059260Y048830D02*
Y052120D01*
X059360Y048830D02*
Y052120D01*
X059460Y048830D02*
Y052120D01*
X059560Y048830D02*
Y052120D01*
X059660Y048830D02*
Y052100D01*
X059760Y048830D02*
Y052100D01*
X059860Y048830D02*
Y052100D01*
X059960Y048830D02*
Y052100D01*
G54D106*
X046057Y052179D02*
X046053Y052157D01*
Y051700*
X046067Y051631*
X046107Y051570*
X046168Y051529*
X046240Y051515*
X046293Y051525*
X046313Y051509*
Y050545*
X048793*
Y048872*
X050624*
Y046166*
X050625Y046166*
X049049*
Y043923*
X049048Y043922*
X046521*
Y046254*
X048528*
Y048469*
X042846*
X042839Y048474*
Y049631*
X042730*
Y049611*
X041687*
Y048706*
X040693*
X040694Y048700*
Y050666*
X041717*
Y050743*
Y051678*
X041709Y051675*
X042727Y051673*
Y051611*
X042730Y051593*
Y050723*
X043540*
Y050545*
X045773*
Y051012*
X045862Y051102*
X045901Y051160*
X045904Y051175*
X045915Y051229*
Y051929*
Y052157*
X045911Y052179*
X045927Y052199*
X046040*
X046057Y052179*
X046530Y043940D02*
X049040D01*
X046530Y043990D02*
X049040D01*
X046530Y044040D02*
X049040D01*
X046530Y044090D02*
X049040D01*
X046530Y044140D02*
X049040D01*
X046530Y044190D02*
X049040D01*
X046530Y044240D02*
X049040D01*
X046530Y044290D02*
X049040D01*
X046530Y044340D02*
X049040D01*
X046530Y044390D02*
X049040D01*
X046530Y044440D02*
X049040D01*
X046530Y044490D02*
X049040D01*
X046530Y044540D02*
X049040D01*
X046530Y044590D02*
X049040D01*
X046530Y044640D02*
X049040D01*
X046530Y044690D02*
X049040D01*
X046530Y044740D02*
X049040D01*
X046530Y044790D02*
X049040D01*
X046530Y044840D02*
X049040D01*
X046530Y044890D02*
X049040D01*
X046530Y044940D02*
X049040D01*
X046530Y044990D02*
X049040D01*
X046530Y045040D02*
X049040D01*
X046530Y045090D02*
X049040D01*
X046530Y045140D02*
X049040D01*
X046530Y045190D02*
X049040D01*
X046530Y045240D02*
X049040D01*
X046530Y045290D02*
X049040D01*
X046530Y045340D02*
X049040D01*
X046530Y045390D02*
X049040D01*
X046530Y045440D02*
X049040D01*
X046530Y045490D02*
X049040D01*
X046530Y045540D02*
X049040D01*
X046530Y045590D02*
X049040D01*
X046530Y045640D02*
X049040D01*
X046530Y045690D02*
X049040D01*
X046530Y045740D02*
X049040D01*
X046530Y045790D02*
X049040D01*
X046530Y045840D02*
X049040D01*
X046530Y045890D02*
X049040D01*
X046530Y045940D02*
X049040D01*
X046530Y045990D02*
X049040D01*
X046530Y046040D02*
X049040D01*
X046530Y046090D02*
X049040D01*
X046530Y046140D02*
X049040D01*
X046530Y046190D02*
X050620D01*
X046530Y046240D02*
X050620D01*
X048540Y046290D02*
X050620D01*
X048540Y046340D02*
X050620D01*
X048540Y046390D02*
X050620D01*
X048540Y046440D02*
X050620D01*
X048540Y046490D02*
X050620D01*
X048540Y046540D02*
X050620D01*
X048540Y046590D02*
X050620D01*
X048540Y046640D02*
X050620D01*
X048540Y046690D02*
X050620D01*
X048540Y046740D02*
X050620D01*
X048540Y046790D02*
X050620D01*
X048540Y046840D02*
X050620D01*
X048540Y046890D02*
X050620D01*
X048540Y046940D02*
X050620D01*
X048540Y046990D02*
X050620D01*
X048540Y047040D02*
X050620D01*
X048540Y047090D02*
X050620D01*
X048540Y047140D02*
X050620D01*
X048540Y047190D02*
X050620D01*
X048540Y047240D02*
X050620D01*
X048540Y047290D02*
X050620D01*
X048540Y047340D02*
X050620D01*
X048540Y047390D02*
X050620D01*
X048540Y047440D02*
X050620D01*
X048540Y047490D02*
X050620D01*
X048540Y047540D02*
X050620D01*
X048540Y047590D02*
X050620D01*
X048540Y047640D02*
X050620D01*
X048540Y047690D02*
X050620D01*
X048540Y047740D02*
X050620D01*
X048540Y047790D02*
X050620D01*
X048540Y047840D02*
X050620D01*
X048540Y047890D02*
X050620D01*
X048540Y047940D02*
X050620D01*
X048540Y047990D02*
X050620D01*
X048540Y048040D02*
X050620D01*
X048540Y048090D02*
X050620D01*
X048540Y048140D02*
X050620D01*
X048540Y048190D02*
X050620D01*
X048540Y048240D02*
X050620D01*
X048540Y048290D02*
X050620D01*
X048540Y048340D02*
X050620D01*
X048540Y048390D02*
X050620D01*
X048540Y048440D02*
X050620D01*
X042850Y048490D02*
X050620D01*
X042850Y048540D02*
X050620D01*
X042850Y048590D02*
X050620D01*
X042850Y048640D02*
X050620D01*
X042850Y048690D02*
X050620D01*
X040700Y048740D02*
X041680D01*
X042850D02*
X050620D01*
X040700Y048790D02*
X041680D01*
X042850D02*
X050620D01*
X040700Y048840D02*
X041680D01*
X042850D02*
X050620D01*
X040700Y048890D02*
X041680D01*
X042850D02*
X048780D01*
X040700Y048940D02*
X041680D01*
X042850D02*
X048780D01*
X040700Y048990D02*
X041680D01*
X042850D02*
X048780D01*
X040700Y049040D02*
X041680D01*
X042850D02*
X048780D01*
X040700Y049090D02*
X041680D01*
X042850D02*
X048780D01*
X040700Y049140D02*
X041680D01*
X042850D02*
X048780D01*
X040700Y049190D02*
X041680D01*
X042850D02*
X048780D01*
X040700Y049240D02*
X041680D01*
X042850D02*
X048780D01*
X040700Y049290D02*
X041680D01*
X042850D02*
X048780D01*
X040700Y049340D02*
X041680D01*
X042850D02*
X048780D01*
X040700Y049390D02*
X041680D01*
X042850D02*
X048780D01*
X040700Y049440D02*
X041680D01*
X042850D02*
X048780D01*
X040700Y049490D02*
X041680D01*
X042850D02*
X048780D01*
X040700Y049540D02*
X041680D01*
X042850D02*
X048780D01*
X040700Y049590D02*
X041680D01*
X042850D02*
X048780D01*
X040700Y049640D02*
X048780D01*
X040700Y049690D02*
X048780D01*
X040700Y049740D02*
X048780D01*
X040700Y049790D02*
X048780D01*
X040700Y049840D02*
X048780D01*
X040700Y049890D02*
X048780D01*
X040700Y049940D02*
X048780D01*
X040700Y049990D02*
X048780D01*
X040700Y050040D02*
X048780D01*
X040700Y050090D02*
X048780D01*
X040700Y050140D02*
X048780D01*
X040700Y050190D02*
X048780D01*
X040700Y050240D02*
X048780D01*
X040700Y050290D02*
X048780D01*
X040700Y050340D02*
X048780D01*
X040700Y050390D02*
X048780D01*
X040700Y050440D02*
X048780D01*
X040700Y050490D02*
X048780D01*
X040700Y050540D02*
X048780D01*
X040700Y050590D02*
X043530D01*
X045780D02*
X046300D01*
X040700Y050640D02*
X043530D01*
X045780D02*
X046300D01*
X041730Y050690D02*
X043530D01*
X045780D02*
X046300D01*
X041730Y050740D02*
X042720D01*
X045780D02*
X046300D01*
X041730Y050790D02*
X042720D01*
X045780D02*
X046300D01*
X041730Y050840D02*
X042720D01*
X045780D02*
X046300D01*
X041730Y050890D02*
X042720D01*
X045780D02*
X046300D01*
X041730Y050940D02*
X042720D01*
X045780D02*
X046300D01*
X041730Y050990D02*
X042720D01*
X045780D02*
X046300D01*
X041730Y051040D02*
X042720D01*
X045810D02*
X046300D01*
X041730Y051090D02*
X042720D01*
X045860D02*
X046300D01*
X041730Y051140D02*
X042720D01*
X045900D02*
X046300D01*
X041730Y051190D02*
X042720D01*
X045920D02*
X046300D01*
X041730Y051240D02*
X042720D01*
X045930D02*
X046300D01*
X041730Y051290D02*
X042720D01*
X045930D02*
X046300D01*
X041730Y051340D02*
X042720D01*
X045930D02*
X046300D01*
X041730Y051390D02*
X042720D01*
X045930D02*
X046300D01*
X041730Y051440D02*
X042720D01*
X045930D02*
X046300D01*
X041730Y051490D02*
X042720D01*
X045930D02*
X046300D01*
X041730Y051540D02*
X042720D01*
X045930D02*
X046150D01*
X041730Y051590D02*
X042720D01*
X045930D02*
X046090D01*
X041730Y051640D02*
X042720D01*
X045930D02*
X046060D01*
X045930Y051690D02*
X046050D01*
X045930Y051740D02*
X046040D01*
X045930Y051790D02*
X046040D01*
X045930Y051840D02*
X046040D01*
X045930Y051890D02*
X046040D01*
X045930Y051940D02*
X046040D01*
X045930Y051990D02*
X046040D01*
X045930Y052040D02*
X046040D01*
X045930Y052090D02*
X046040D01*
X045930Y052140D02*
X046040D01*
X045930Y052190D02*
X046040D01*
X048833Y053215D02*
X048830Y053213D01*
X046186*
Y053933*
X046223Y053971*
X046285Y053945*
X046377Y053933*
X046470Y053945*
X046556Y053981*
X046631Y054038*
X046688Y054112*
X046723Y054198*
X046736Y054291*
X046723Y054384*
X046688Y054470*
X046631Y054544*
X046556Y054601*
X046470Y054637*
X046377Y054649*
X046285Y054637*
X046198Y054601*
X046203Y054604*
X046186Y054613*
Y055959*
X048833*
Y053215*
G54D107*
X048783Y053247D02*
X048819Y053263D01*
X046236*
Y053913*
X046235Y053912*
X046272Y053896*
X046377Y053882*
X046483Y053896*
X046582Y053937*
X046666Y054002*
X046731Y054087*
X046772Y054185*
X046786Y054291*
X046772Y054397*
X046731Y054495*
X046666Y054580*
X046582Y054645*
X046483Y054685*
X046377Y054699*
X046272Y054685*
X046529Y054792*
X046297Y054614*
X046236Y054644*
Y055909*
X048783*
Y053247*
X046290Y053270D02*
Y053880D01*
Y054630D02*
Y055910D01*
X046390Y053270D02*
Y053880D01*
Y054710D02*
Y055910D01*
X046490Y053270D02*
Y053900D01*
Y054710D02*
Y055910D01*
X046590Y053270D02*
Y053940D01*
Y054670D02*
Y055910D01*
X046690Y053270D02*
Y054020D01*
Y054570D02*
Y055910D01*
X046790Y053270D02*
Y055910D01*
X046890Y053270D02*
Y055910D01*
X046990Y053270D02*
Y055910D01*
X047090Y053270D02*
Y055910D01*
X047190Y053270D02*
Y055910D01*
X047290Y053270D02*
Y055910D01*
X047390Y053270D02*
Y055910D01*
X047490Y053270D02*
Y055910D01*
X047590Y053270D02*
Y055910D01*
X047690Y053270D02*
Y055910D01*
X047790Y053270D02*
Y055910D01*
X047890Y053270D02*
Y055910D01*
X047990Y053270D02*
Y055910D01*
X048090Y053270D02*
Y055910D01*
X048190Y053270D02*
Y055910D01*
X048290Y053270D02*
Y055910D01*
X048390Y053270D02*
Y055910D01*
X048490Y053270D02*
Y055910D01*
X048590Y053270D02*
Y055910D01*
X048690Y053270D02*
Y055910D01*
G54D106*
X045250Y041275D02*
X044906D01*
X044829Y041265*
X044755Y041234*
X044694Y041187*
X044626Y041119*
X044578Y041057*
X044548Y040984*
X044538Y040905*
X044548Y040826*
X044578Y040753*
X044627Y040690*
X044690Y040641*
X044763Y040611*
X044842Y040601*
X044921Y040611*
X044994Y040641*
X045027Y040666*
X045250*
Y040027*
X043824*
Y041667*
X045250*
Y041275*
G54D107*
X045200Y041325D02*
X044903D01*
X044816Y041313*
X044730Y041278*
X044661Y041225*
X044588Y041152*
X044535Y041082*
X044499Y040997*
X044487Y040905*
X044499Y040813*
X044535Y040728*
X044591Y040654*
X044665Y040598*
X044750Y040562*
X044842Y040550*
X044934Y040562*
X045019Y040598*
X045044Y040616*
X045200*
Y040077*
X043874*
Y041617*
X045200*
Y041325*
G54D108*
X045100Y041425D02*
X044896D01*
X044790Y041411*
X044680Y041365*
X044595Y041300*
X044513Y041218*
X044447Y041133*
X044402Y041023*
X044386Y040905*
X044402Y040787*
X044447Y040677*
X044520Y040583*
X044614Y040510*
X044724Y040465*
X044842Y040449*
X044960Y040465*
X045070Y040510*
X045078Y040516*
X045100*
Y040177*
X043974*
Y041517*
X045100*
Y041425*
X044070Y040190D02*
Y041520D01*
X044270Y040190D02*
Y041520D01*
X044470Y040190D02*
Y040630D01*
Y041190D02*
Y041520D01*
X044670Y040190D02*
Y040480D01*
Y041390D02*
Y041520D01*
X044870Y040190D02*
Y040430D01*
Y041440D02*
Y041520D01*
X045070Y040190D02*
Y040480D01*
Y041440D02*
Y041520D01*
G54D106*
X060062Y044665D02*
Y042927D01*
X057917*
X057859Y042916*
X057834Y042899*
X055182*
Y043740*
X055218Y043826*
X055235Y043956*
X055218Y044086*
X055182Y044173*
Y044640*
X057741*
Y048026*
X060062*
Y044665*
G54D107*
X060012Y044665D02*
Y042977D01*
X057912*
X057840Y042963*
X057818Y042949*
X055232*
Y043730*
X055266Y043813*
X055285Y043956*
X055266Y044099*
X055232Y044182*
Y044590*
X057791*
Y047976*
X060012*
Y044665*
G54D108*
X059912Y044665D02*
Y043077D01*
X057902*
X057801Y043057*
X057788Y043049*
X055332*
Y043710*
X055364Y043787*
X055386Y043956*
X055364Y044126*
X055332Y044202*
Y044490*
X057891*
Y047876*
X059912*
Y044665*
G54D109*
X059712Y044665D02*
Y043277D01*
X057883*
X057723Y043245*
X057727Y043249*
X055532*
Y043670*
X055559Y043735*
X055588Y043956*
X055559Y044178*
X055532Y044242*
Y044290*
X058091*
Y047676*
X059712*
Y044665*
X055730Y043260D02*
Y044250D01*
X056130Y043260D02*
Y044250D01*
X056530Y043260D02*
Y044250D01*
X056930Y043260D02*
Y044250D01*
X057330Y043260D02*
Y044250D01*
X057730Y043360D02*
Y044250D01*
X058130Y043360D02*
Y047680D01*
X058530Y043360D02*
Y047680D01*
X058930Y043360D02*
Y047680D01*
X059330Y043360D02*
Y047680D01*
G54D106*
X048223Y046540D02*
X045191D01*
Y045469*
X045140Y045430*
X045083Y045356*
X045047Y045269*
X045035Y045177*
X045047Y045084*
X045083Y044998*
X045140Y044923*
X045191Y044884*
Y043766*
X045189Y043765*
X042839*
Y046529*
Y048124*
X048223*
Y046540*
G54D107*
X048173Y046590D02*
X045141D01*
Y045494*
X045104Y045466*
X045039Y045381*
X044999Y045282*
X044985Y045177*
X044999Y045071*
X045039Y044972*
X045104Y044888*
X045141Y044860*
Y043794*
X045174Y043815*
X042889*
Y046529*
Y048074*
X048173*
Y046590*
X042900Y043850D02*
X045130D01*
X042900Y043950D02*
X045130D01*
X042900Y044050D02*
X045130D01*
X042900Y044150D02*
X045130D01*
X042900Y044250D02*
X045130D01*
X042900Y044350D02*
X045130D01*
X042900Y044450D02*
X045130D01*
X042900Y044550D02*
X045130D01*
X042900Y044650D02*
X045130D01*
X042900Y044750D02*
X045130D01*
X042900Y044850D02*
X045130D01*
X042900Y044950D02*
X045050D01*
X042900Y045050D02*
X044990D01*
X042900Y045150D02*
X044990D01*
X042900Y045250D02*
X044990D01*
X042900Y045350D02*
X045010D01*
X042900Y045450D02*
X045070D01*
X042900Y045550D02*
X045130D01*
X042900Y045650D02*
X045130D01*
X042900Y045750D02*
X045130D01*
X042900Y045850D02*
X045130D01*
X042900Y045950D02*
X045130D01*
X042900Y046050D02*
X045130D01*
X042900Y046150D02*
X045130D01*
X042900Y046250D02*
X045130D01*
X042900Y046350D02*
X045130D01*
X042900Y046450D02*
X045130D01*
X042900Y046550D02*
X045130D01*
X042900Y046650D02*
X048170D01*
X042900Y046750D02*
X048170D01*
X042900Y046850D02*
X048170D01*
X042900Y046950D02*
X048170D01*
X042900Y047050D02*
X048170D01*
X042900Y047150D02*
X048170D01*
X042900Y047250D02*
X048170D01*
X042900Y047350D02*
X048170D01*
X042900Y047450D02*
X048170D01*
X042900Y047550D02*
X048170D01*
X042900Y047650D02*
X048170D01*
X042900Y047750D02*
X048170D01*
X042900Y047850D02*
X048170D01*
X042900Y047950D02*
X048170D01*
X042900Y048050D02*
X048170D01*
G54D106*
X044325Y055959D02*
X045545D01*
Y054625*
X045526Y054612*
X045466Y054637*
X045374Y054649*
X045281Y054637*
X045194Y054601*
X045120Y054544*
X045063Y054470*
X045028Y054384*
X045015Y054291*
X045028Y054198*
X045063Y054112*
X045120Y054038*
X045194Y053981*
X045281Y053945*
X045374Y053933*
X045466Y053945*
X045486Y053953*
X045541Y053898*
Y053543*
Y053334*
X045545Y053312*
Y053195*
X045543Y053194*
X042958*
Y055885*
Y056805*
X044325*
Y055959*
G54D107*
X044275Y055909D02*
X045495D01*
Y054652*
X045520Y054668*
X045479Y054685*
X045374Y054699*
X045268Y054685*
X045169Y054645*
X045085Y054580*
X045020Y054495*
X044979Y054397*
X044965Y054291*
X044979Y054185*
X045020Y054087*
X045085Y054002*
X045169Y053937*
X045268Y053896*
X045374Y053882*
X045479Y053896*
X045474Y053894*
X045491Y053878*
Y053543*
Y053329*
X045495Y053307*
Y053227*
X045531Y053244*
X043008*
Y055885*
Y056755*
X044275*
Y055909*
X043060Y053250D02*
Y056760D01*
X043160Y053250D02*
Y056760D01*
X043260Y053250D02*
Y056760D01*
X043360Y053250D02*
Y056760D01*
X043460Y053250D02*
Y056760D01*
X043560Y053250D02*
Y056760D01*
X043660Y053250D02*
Y056760D01*
X043760Y053250D02*
Y056760D01*
X043860Y053250D02*
Y056760D01*
X043960Y053250D02*
Y056760D01*
X044060Y053250D02*
Y056760D01*
X044160Y053250D02*
Y056760D01*
X044260Y053250D02*
Y056760D01*
X044360Y053250D02*
Y055900D01*
X044460Y053250D02*
Y055900D01*
X044560Y053250D02*
Y055900D01*
X044660Y053250D02*
Y055900D01*
X044760Y053250D02*
Y055900D01*
X044860Y053250D02*
Y055900D01*
X044960Y053250D02*
Y055900D01*
X045060Y053250D02*
Y054020D01*
Y054570D02*
Y055900D01*
X045160Y053250D02*
Y053940D01*
Y054670D02*
Y055900D01*
X045260Y053250D02*
Y053900D01*
Y054710D02*
Y055900D01*
X045360Y053250D02*
Y053880D01*
Y054710D02*
Y055900D01*
X045460Y053250D02*
Y053880D01*
Y054710D02*
Y055900D01*
G54D106*
X057258Y058327D02*
Y057770D01*
X058192*
X058187Y057779*
X058183Y057091*
X056404*
Y057820*
X055124*
Y058321*
X057268*
X057258Y058327*
X056410Y057110D02*
X058190D01*
X056410Y057160D02*
X058190D01*
X056410Y057210D02*
X058190D01*
X056410Y057260D02*
X058190D01*
X056410Y057310D02*
X058190D01*
X056410Y057360D02*
X058190D01*
X056410Y057410D02*
X058190D01*
X056410Y057460D02*
X058190D01*
X056410Y057510D02*
X058190D01*
X056410Y057560D02*
X058190D01*
X056410Y057610D02*
X058190D01*
X056410Y057660D02*
X058190D01*
X056410Y057710D02*
X058190D01*
X056410Y057760D02*
X058190D01*
X056410Y057810D02*
X057250D01*
X055130Y057860D02*
X057250D01*
X055130Y057910D02*
X057250D01*
X055130Y057960D02*
X057250D01*
X055130Y058010D02*
X057250D01*
X055130Y058060D02*
X057250D01*
X055130Y058110D02*
X057250D01*
X055130Y058160D02*
X057250D01*
X055130Y058210D02*
X057250D01*
X055130Y058260D02*
X057250D01*
X055130Y058310D02*
X057250D01*
X056945Y060003D02*
X056943Y058509D01*
X055124*
Y059997*
X056946*
X056945Y060003*
X055130Y058530D02*
X056950D01*
X055130Y058580D02*
X056950D01*
X055130Y058630D02*
X056950D01*
X055130Y058680D02*
X056950D01*
X055130Y058730D02*
X056950D01*
X055130Y058780D02*
X056950D01*
X055130Y058830D02*
X056950D01*
X055130Y058880D02*
X056950D01*
X055130Y058930D02*
X056950D01*
X055130Y058980D02*
X056950D01*
X055130Y059030D02*
X056950D01*
X055130Y059080D02*
X056950D01*
X055130Y059130D02*
X056950D01*
X055130Y059180D02*
X056950D01*
X055130Y059230D02*
X056950D01*
X055130Y059280D02*
X056950D01*
X055130Y059330D02*
X056950D01*
X055130Y059380D02*
X056950D01*
X055130Y059430D02*
X056950D01*
X055130Y059480D02*
X056950D01*
X055130Y059530D02*
X056950D01*
X055130Y059580D02*
X056950D01*
X055130Y059630D02*
X056950D01*
X055130Y059680D02*
X056950D01*
X055130Y059730D02*
X056950D01*
X055130Y059780D02*
X056950D01*
X055130Y059830D02*
X056950D01*
X055130Y059880D02*
X056950D01*
X055130Y059930D02*
X056950D01*
X055130Y059980D02*
X056950D01*
X058205Y056451D02*
X058197Y056431D01*
X058185Y056338*
X058197Y056245*
X058233Y056159*
X058290Y056085*
X058364Y056028*
X058450Y055992*
X058543Y055980*
X058635Y055992*
X058722Y056028*
X058796Y056085*
X058819Y056115*
X058833Y056111*
Y054847*
X056890*
X056882Y054864*
X056924Y054919*
X056960Y055005*
X056972Y055098*
X056960Y055191*
X056924Y055277*
X056867Y055351*
X056793Y055408*
X056706Y055444*
X056614Y055456*
X056521Y055444*
X056435Y055408*
X056360Y055351*
X056304Y055277*
X056268Y055191*
X056256Y055098*
X056268Y055005*
X056304Y054919*
X056345Y054864*
X056337Y054847*
X054887*
Y055526*
X056245*
Y056471*
X058192*
X058205Y056451*
X054900Y054870D02*
X056340D01*
X056900D02*
X058830D01*
X054900Y054920D02*
X056290D01*
X056930D02*
X058830D01*
X054900Y054970D02*
X056280D01*
X056960D02*
X058830D01*
X054900Y055020D02*
X056260D01*
X056980D02*
X058830D01*
X054900Y055070D02*
X056260D01*
X056980D02*
X058830D01*
X054900Y055120D02*
X056260D01*
X056980D02*
X058830D01*
X054900Y055170D02*
X056260D01*
X056980D02*
X058830D01*
X054900Y055220D02*
X056270D01*
X056960D02*
X058830D01*
X054900Y055270D02*
X056290D01*
X056940D02*
X058830D01*
X054900Y055320D02*
X056330D01*
X056910D02*
X058830D01*
X054900Y055370D02*
X056380D01*
X056860D02*
X058830D01*
X054900Y055420D02*
X056460D01*
X056780D02*
X058830D01*
X054900Y055470D02*
X058830D01*
X054900Y055520D02*
X058830D01*
X056260Y055570D02*
X058830D01*
X056260Y055620D02*
X058830D01*
X056260Y055670D02*
X058830D01*
X056260Y055720D02*
X058830D01*
X056260Y055770D02*
X058830D01*
X056260Y055820D02*
X058830D01*
X056260Y055870D02*
X058830D01*
X056260Y055920D02*
X058830D01*
X056260Y055970D02*
X058830D01*
X056260Y056020D02*
X058380D01*
X058710D02*
X058830D01*
X056260Y056070D02*
X058310D01*
X058790D02*
X058830D01*
X056260Y056120D02*
X058260D01*
X056260Y056170D02*
X058220D01*
X056260Y056220D02*
X058200D01*
X056260Y056270D02*
X058190D01*
X056260Y056320D02*
X058190D01*
X056260Y056370D02*
X058190D01*
X056260Y056420D02*
X058190D01*
%LNmppt-ng_controlboard-2*%
%LPC*%
G36*
X057205Y044430D02*
X056258D01*
Y043482*
X057205*
Y044430*
G37*
G36*
X056633Y058272D02*
X056564Y058258D01*
X056505Y058219*
X056485Y058199*
X056446Y058140*
X056432Y058070*
X056446Y058001*
X056485Y057942*
X056544Y057902*
X056614Y057888*
X056683Y057902*
X056742Y057942*
X056762Y057961*
X056801Y058020*
X056815Y058090*
X056801Y058160*
X056762Y058219*
X056703Y058258*
X056633Y058272*
G37*
G36*
X055137Y057046D02*
X054507D01*
X054430Y057031*
X054365Y056987*
X054321Y056921*
X054305Y056844*
X054321Y056767*
X054365Y056701*
X054430Y056657*
X054507Y056642*
X055137*
X055215Y056657*
X055280Y056701*
X055324Y056767*
X055339Y056844*
X055324Y056921*
X055280Y056987*
X055215Y057031*
X055137Y057046*
G37*
G36*
X058582Y055536D02*
X058562D01*
X058493Y055522*
X058434Y055482*
X058394Y055423*
X058381Y055354*
X058394Y055284*
X058434Y055225*
X058493Y055186*
X058562Y055172*
X058582*
X058652Y055186*
X058711Y055225*
X058750Y055284*
X058764Y055354*
X058750Y055423*
X058711Y055482*
X058652Y055522*
X058582Y055536*
G37*
G36*
X057814Y057544D02*
X057745Y057530D01*
X057686Y057490*
X057668Y057473*
X057629Y057414*
X057615Y057344*
X057629Y057274*
X057668Y057215*
X057727Y057176*
X057797Y057162*
X057866Y057176*
X057925Y057215*
X057943Y057233*
X057983Y057292*
X057996Y057362*
X057983Y057431*
X057943Y057490*
X057884Y057530*
X057814Y057544*
G37*
%LNmppt-ng_controlboard-3*%
%LPD*%
G54D10*
X057342Y045216D03*
X056792D03*
X053737Y075964D03*
X054287D03*
X043937Y066633D03*
X044487D03*
X043938Y067362D03*
X044488D03*
X045531D03*
X046081D03*
X045650Y070019D03*
X046200D03*
X043937Y071856D03*
X044487D03*
Y073287D03*
X043937D03*
X047440Y074448D03*
X047990D03*
X047438Y075161D03*
X047988D03*
X049035Y075157D03*
X049585D03*
X043937Y060469D03*
X044487D03*
Y061920D03*
X043937D03*
Y063371D03*
X044487D03*
Y064822D03*
X043937D03*
X044488Y069251D03*
X043938D03*
X045650Y068484D03*
X046200D03*
X045669Y074370D03*
X046219D03*
X043938D03*
X044488D03*
X051625Y075964D03*
X051075D03*
X056398D03*
X056948D03*
X048964D03*
X048414D03*
X045753D03*
X046303D03*
X044488Y059744D03*
X043938D03*
Y061195D03*
X044488D03*
Y064097D03*
X043938D03*
X044487Y068484D03*
X043937D03*
X043641Y075964D03*
X043091D03*
X052872Y074376D03*
X052322D03*
Y073595D03*
X052872D03*
X052324Y075157D03*
X052874D03*
X045650Y071141D03*
X046200D03*
X044488Y065905D03*
X043938D03*
X047656D03*
X047106D03*
X047125Y067362D03*
X047675D03*
X047438Y073736D03*
X047988D03*
X050614D03*
X051164D03*
X051179Y075157D03*
X050629D03*
X043937Y070019D03*
X044487D03*
X046199Y069251D03*
X045649D03*
X044488Y072572D03*
X043938D03*
X046219Y075157D03*
X045669D03*
X043937Y075177D03*
X044487D03*
X046200Y073287D03*
X045650D03*
X043938Y071141D03*
X044488D03*
X052440Y066870D03*
X052990D03*
X051024Y068838D03*
X051574D03*
X051024Y066870D03*
X051574D03*
X052422Y068838D03*
X052972D03*
X051555Y069625D03*
X051005D03*
X052324Y072814D03*
X052874D03*
X044487Y062657D03*
X043937D03*
G54D11*
X055826Y045216D03*
X055078D03*
X049566Y059822D03*
X048818D03*
X043720Y076988D03*
X042972D03*
X046389Y076978D03*
X045641D03*
X049059D03*
X048311D03*
X057066D03*
X056318D03*
X054397D03*
X053649D03*
X051728D03*
X050980D03*
G54D12*
X044923Y040885D03*
X042561D03*
X047007Y055177D03*
X044645D03*
X046889Y045669D03*
X044527D03*
G54D13*
X048425Y040419D03*
Y040969D03*
X047696Y040419D03*
Y040969D03*
X046988Y040971D03*
Y040421D03*
X045782Y040971D03*
Y040421D03*
X050374Y058660D03*
Y058110D03*
X044468Y050904D03*
Y050354D03*
X051200Y058111D03*
Y058661D03*
X047657Y050354D03*
Y050904D03*
X052322Y058661D03*
Y058111D03*
X055984Y058070D03*
Y058620D03*
X058740Y057203D03*
Y056653D03*
X049094Y070314D03*
Y070864D03*
Y072539D03*
Y071989D03*
X046725Y050905D03*
Y050355D03*
X045400Y050354D03*
Y050904D03*
G54D14*
X047814Y057220D03*
Y057720D03*
Y058220D03*
Y058720D03*
Y059220D03*
Y059720D03*
Y060220D03*
X045925Y057220D03*
Y057720D03*
Y058220D03*
Y058720D03*
Y059220D03*
Y059720D03*
Y060220D03*
X047814Y061295D03*
Y061795D03*
Y062295D03*
Y062795D03*
Y063295D03*
Y063795D03*
Y064295D03*
X045925Y061295D03*
Y061795D03*
Y062295D03*
Y062795D03*
Y063295D03*
Y063795D03*
Y064295D03*
G54D15*
X056850Y053523D03*
X055472D03*
G54D16*
X050754Y057315D03*
X051124Y056515D03*
X050374D03*
G54D17*
X057814Y056102D03*
Y057362D03*
G54D18*
X058897Y047500D03*
Y049271D03*
X047618Y053661D03*
Y051889D03*
X047795Y044566D03*
Y042795D03*
G54D19*
X056318Y050531D03*
Y048169D03*
X047736Y049507D03*
Y047145D03*
X046023Y049547D03*
Y047185D03*
X044055Y049547D03*
Y047185D03*
G54D20*
X058779Y053635D03*
Y051127D03*
G54D21*
X045472Y051929D03*
X045728D03*
X045984D03*
X046240D03*
X045472Y053562D03*
X045728D03*
X045984D03*
G54D22*
X046240Y053562D03*
G54D23*
X045437Y071830D03*
Y072582D03*
X046456Y072205D03*
Y072582D03*
Y071830D03*
X049838Y074488D03*
Y073736D03*
X048818Y074112D03*
Y073736D03*
Y074488D03*
X046334Y066692D03*
Y065940D03*
X045314Y066317D03*
Y065940D03*
Y066692D03*
G54D24*
X052637Y067795D03*
X051377D03*
X051338Y070531D03*
X052598D03*
G54D25*
X047362Y072657D03*
Y071909D03*
X048188Y072283D03*
X047381Y070944D03*
Y070196D03*
X048208Y070570D03*
G54D26*
X055393Y051909D03*
X056968D03*
G54D27*
X056870Y055844D03*
G54D28*
X054822Y057344D03*
Y056844D03*
Y056344D03*
Y055844D03*
X056870Y057344D03*
Y056844D03*
Y056344D03*
G54D29*
X050059Y061574D03*
X050374D03*
X050688D03*
X051003D03*
X051318D03*
X051633D03*
X051948D03*
X052263D03*
Y064881D03*
X051948D03*
X051633D03*
X051318D03*
X051003D03*
X050688D03*
X050374D03*
X050059D03*
G54D30*
X052814Y062125D03*
Y062440D03*
Y062755D03*
Y063070D03*
Y063385D03*
Y063700D03*
Y064015D03*
Y064330D03*
X049507D03*
Y064015D03*
Y063700D03*
Y063385D03*
Y063070D03*
Y062755D03*
Y062440D03*
Y062125D03*
G54D31*
X044133Y053714D03*
Y051836D03*
X043937Y044246D03*
Y042368D03*
G54D32*
X046635Y044330D03*
G54D33*
X045135Y042283D03*
X045635D03*
X046135D03*
X046635D03*
X045135Y044330D03*
X045635D03*
X046135D03*
G54D34*
X054852Y064773D02*
Y071289D01*
X053877Y072263D02*
X054852Y071289D01*
X052657Y072263D02*
X053877D01*
X052324Y072597D02*
X052657Y072263D01*
X053681Y071870D02*
X054488Y071062D01*
X052559Y071870D02*
X053681D01*
X051397Y073031D02*
X052559Y071870D01*
X047322Y073031D02*
X051397D01*
X042874Y061850D02*
X043669Y062646D01*
X042874Y059980D02*
Y061850D01*
X042559Y059665D02*
X042874Y059980D01*
X043669Y062646D02*
X043937D01*
X043712Y061920D02*
X043937D01*
X043267Y061476D02*
X043712Y061920D01*
X043267Y059448D02*
Y061476D01*
X042500Y058681D02*
X043267Y059448D01*
X041707Y058681D02*
X042500D01*
X043938Y059646D02*
Y059744D01*
X042461Y058170D02*
X043938Y059646D01*
X042196Y058170D02*
X042461D01*
X045472Y058720D02*
X045925D01*
X044606Y057854D02*
X045472Y058720D01*
X044606Y057480D02*
Y057854D01*
X044330Y057204D02*
X044606Y057480D01*
X043641Y057204D02*
X044330D01*
X043326Y057519D02*
X043641Y057204D01*
X044965Y057583D02*
X045602Y058220D01*
X044965Y056944D02*
X045275Y056633D01*
X044965Y056944D02*
Y057583D01*
X045602Y058220D02*
X045925D01*
X045586Y059720D02*
X045925D01*
X044586Y058720D02*
X045586Y059720D01*
X044586Y058426D02*
Y058720D01*
X046279Y060728D02*
X047185Y061633D01*
X044745Y060728D02*
X046279D01*
X044487Y060469D02*
X044745Y060728D01*
X051279Y059389D02*
X052716D01*
X050019Y060649D02*
X051279Y059389D01*
X049271Y060649D02*
X050019D01*
X051259Y059901D02*
X051476D01*
X050374Y060787D02*
X051259Y059901D01*
X051456Y066633D02*
X051633Y066811D01*
X051456Y065570D02*
Y066633D01*
Y065570D02*
X051633Y065393D01*
X048681Y065078D02*
X048917Y064842D01*
Y063307D02*
Y064842D01*
Y063307D02*
X049153Y063070D01*
X048346Y064763D02*
X048543Y064566D01*
Y063169D02*
Y064566D01*
Y063169D02*
X048956Y062755D01*
X046889Y065078D02*
X048681D01*
X049822Y052133D02*
Y056515D01*
X049330Y051641D02*
X049822Y052133D01*
X047185Y059220D02*
X047814D01*
X047185Y059350D02*
Y059389D01*
Y059220D02*
Y059350D01*
X047814Y059720D02*
X048716D01*
X049842Y060334D02*
X051200Y058976D01*
X048799Y060334D02*
X049842D01*
X048346Y060787D02*
X048799Y060334D01*
X048125Y061795D02*
X049271Y060649D01*
X049822Y058307D02*
X050175Y058660D01*
X050374*
X049822Y056515D02*
Y058307D01*
X050374Y058660D02*
X050375Y058661D01*
X051200*
Y058976*
X055826Y045216D02*
X056792D01*
X056314Y046692D02*
X057342Y045665D01*
Y045216D02*
Y045665D01*
X047657Y069212D02*
X049350D01*
X046318Y070551D02*
X047657Y069212D01*
X049350D02*
X050059Y068503D01*
X049153Y063070D02*
X049507D01*
X052106Y062480D02*
X052331Y062705D01*
Y062866*
X052535Y063070*
X052814*
X051003Y061574D02*
Y062933D01*
X046635Y041323D02*
Y042185D01*
Y041323D02*
X046988Y040971D01*
X048444Y056594D02*
X048758Y056908D01*
X046909Y056594D02*
X048444D01*
X048758Y056908D02*
Y057258D01*
X047086Y056909D02*
X048287D01*
X048484Y057106*
Y057519*
X045275Y056633D02*
X045767D01*
X045472Y056437D02*
X045551D01*
X045275Y056633D02*
X045472Y056437D01*
X045767Y056633D02*
X046043Y056909D01*
X046594*
X046909Y056594*
X046299Y056496D02*
X046496Y056299D01*
X048799*
X049212Y056712*
X046275Y057720D02*
X047086Y056909D01*
X048283Y057720D02*
X048484Y057519D01*
X047814Y057720D02*
X048283D01*
X048758Y057258D02*
X049212Y057712D01*
X045925Y057720D02*
X046275D01*
X046751Y060452D02*
X047342Y061043D01*
X046751Y057736D02*
Y060452D01*
Y057736D02*
X047267Y057220D01*
X047814*
X047185Y057956D02*
Y059220D01*
X047204Y058220D02*
X047814D01*
X047185Y057956D02*
X047421Y057720D01*
X047515Y059720D02*
X047814D01*
X047185Y059389D02*
X047515Y059720D01*
X043897Y057737D02*
X044586Y058426D01*
X043897Y057720D02*
Y057737D01*
X046240Y051948D02*
X046259D01*
X046725Y050905D02*
Y051443D01*
X046240Y051929D02*
X046725Y051443D01*
X051811Y055984D02*
X053165Y054629D01*
X049311Y051425D02*
X049330Y051444D01*
X046135Y044330D02*
Y045098D01*
X046279Y054291D02*
X046377D01*
X045984Y053996D02*
X046279Y054291D01*
X045984Y053562D02*
Y053996D01*
X045374Y054291D02*
X045413D01*
X045728Y053976*
Y053543D02*
Y053976D01*
X044468Y050904D02*
X045400D01*
X045728Y051232*
Y051929*
X043326Y058149D02*
X043897Y058720D01*
X043326Y057519D02*
Y058149D01*
X047362Y070964D02*
X048582D01*
X050393Y068385D02*
Y069959D01*
X049488Y070864D02*
X050393Y069959D01*
X048682Y070864D02*
X049448D01*
X049094D02*
X049488D01*
X046960Y072657D02*
X047362D01*
X048661*
X047185Y064133D02*
X047342Y064291D01*
X047185Y063543D02*
Y064133D01*
Y063543D02*
X047433Y063295D01*
X047814*
X046295Y061295D02*
X046732Y061732D01*
Y062145*
X045925Y061295D02*
X046295D01*
X047515D02*
X047814D01*
X051811Y055984D02*
Y056870D01*
X051365Y057315D02*
X051811Y056870D01*
X050734Y057315D02*
X051365D01*
X050531Y062204D02*
X050688Y062047D01*
Y061574D02*
Y062047D01*
X045314Y067145D02*
X045531Y067362D01*
X051625Y075964D02*
X052027D01*
X057066Y076751D02*
Y076978D01*
X056398Y076083D02*
X057066Y076751D01*
X056398Y075964D02*
Y076083D01*
X054397Y076759D02*
Y076978D01*
X053737Y076099D02*
X054397Y076759D01*
X053737Y075964D02*
Y076099D01*
X051728Y076748D02*
Y076978D01*
X051075Y076095D02*
X051728Y076748D01*
X051075Y075964D02*
Y076095D01*
X049059Y076775D02*
Y076978D01*
X048414Y076131D02*
X049059Y076775D01*
X048414Y075964D02*
Y076131D01*
X045753Y075964D02*
Y076107D01*
X048818Y074940D02*
D01*
X046219Y074135D02*
Y074370D01*
X052460Y070531D02*
X052598D01*
X051555Y069625D02*
X052460Y070531D01*
X051555Y068838D02*
Y069625D01*
X045650Y069253D02*
Y070019D01*
X048027Y073736D02*
X048818D01*
X048027D02*
Y075122D01*
X048818Y074488D02*
Y074940D01*
X044523Y065940D02*
Y067326D01*
Y065940D02*
X045314D01*
X046334D02*
X047070D01*
X045314Y066692D02*
Y067145D01*
X047106Y065905D02*
D01*
Y066377*
D01*
X050374Y057676D02*
Y058110D01*
Y057676D02*
X050734Y057315D01*
X052990Y066870D02*
Y067107D01*
X052637Y067460D02*
X052990Y067107D01*
X052637Y067460D02*
Y067795D01*
X051377Y067460D02*
Y067795D01*
Y067460D02*
X051574Y067263D01*
Y066870D02*
Y067263D01*
Y066870D02*
X052440D01*
X051005Y068838D02*
Y070198D01*
X051338Y070531*
X053248Y063385D02*
X053405D01*
X049370Y061988D02*
X049507Y062125D01*
X049370Y061673D02*
Y061988D01*
X044487Y070019D02*
X045018Y070551D01*
X046318*
X044487Y064822D02*
X044921D01*
X045448Y064295*
X045925*
X044487Y061920D02*
X044814D01*
X045925Y063795D02*
X046275D01*
X052263Y061574D02*
X052500Y061338D01*
X041692Y060674D02*
X042196Y060170D01*
X041692Y060674D02*
Y063405D01*
X041948Y063661*
X043502*
X043938Y064097*
X045925Y062295D02*
X046251D01*
X046653Y062696*
Y063484*
X046389Y076744D02*
Y076978D01*
X045753Y076107D02*
X046389Y076744D01*
X046275Y063795D02*
X046574Y064094D01*
Y064763*
X046889Y065078*
X046653Y063484D02*
X046870Y063700D01*
Y064586*
X047047Y064763*
X048346*
X053326Y063700D02*
X054488Y064862D01*
X052618Y063700D02*
X053326D01*
X053464Y063385D02*
X054852Y064773D01*
X052618Y063385D02*
X053464D01*
X046200Y073287D02*
X046456Y073031D01*
Y072582D02*
Y073031D01*
Y072582D02*
X046885D01*
X048661Y072657D02*
X048779Y072539D01*
X049094*
X048582Y070964D02*
X048682Y070864D01*
X048818Y074940D02*
X049035Y075157D01*
X049838Y073736D02*
X050614D01*
X051555Y068681D02*
Y068838D01*
X052422*
X051259Y068385D02*
X051555Y068681D01*
X050393Y068385D02*
X051259D01*
X048858Y062440D02*
X049507D01*
X048720Y062303D02*
X048858Y062440D01*
X047814Y061795D02*
X048125D01*
X050059Y061299D02*
Y061574D01*
X049842Y061082D02*
X050059Y061299D01*
X051633Y061259D02*
Y061574D01*
X051948D02*
D01*
X050374Y060787D02*
Y061574D01*
X041196Y067170D02*
X041692Y066674D01*
Y064901D02*
Y066674D01*
Y064901D02*
X041913Y064681D01*
X042399*
X042400Y064682*
X042734*
X043090Y065039*
Y066870*
X043582Y067362*
X043938*
X041196Y059170D02*
X041692Y059665D01*
X042559*
X041196Y058170D02*
X041707Y058681D01*
X047185Y061633D02*
Y062007D01*
X047472Y062295*
X047814*
X052972Y068838D02*
X053425Y069291D01*
Y069724*
X053543Y069842*
X049822Y056515D02*
X050354D01*
X045719Y051920D02*
X045728Y051929D01*
X045719Y051614D02*
Y051920D01*
X047381Y070196D02*
X047834D01*
X048208Y070570*
X044094Y057720D02*
X044110Y057736D01*
X054488Y064862D02*
Y071062D01*
X052539Y070531D02*
X052598D01*
X046219Y074135D02*
X047322Y073031D01*
X046885Y072582D02*
X046960Y072657D01*
X049566Y067834D02*
X049724Y067677D01*
X048877Y067397D02*
X049429Y066846D01*
X045472Y051929D02*
Y052716D01*
X048956Y062755D02*
X049507D01*
X044814Y061920D02*
X045211Y062318D01*
Y062396*
X045610Y062795*
X045925*
X053165Y053641D02*
Y054629D01*
X050330Y054503D02*
X051811Y055984D01*
X050330Y053641D02*
Y054503D01*
X058484Y064724D02*
X058641D01*
X048877Y065866D02*
Y066397D01*
Y065866D02*
X049507Y065236D01*
Y064330D02*
Y065236D01*
X049429Y065807D02*
Y066846D01*
Y065807D02*
X050059Y065177D01*
X049724Y066062D02*
Y067677D01*
Y066062D02*
X050374Y065413D01*
Y064881D02*
Y065413D01*
X050059Y066279D02*
Y068503D01*
Y066279D02*
X050688Y065649D01*
Y064881D02*
Y065649D01*
X050393Y066673D02*
Y068385D01*
Y066673D02*
X051003Y066062D01*
Y064881D02*
Y066062D01*
X053051Y064015D02*
X053188D01*
X052324Y072597D02*
Y072814D01*
X051043Y071614D02*
X051594Y071062D01*
X052007*
X052539Y070531*
X052066Y064015D02*
X052381Y064330D01*
X052814*
X052066Y063937D02*
X052263Y064133D01*
X051574Y066870D02*
X051633Y066811D01*
Y064881D02*
Y065393D01*
X052814Y064015D02*
X053188D01*
X053661Y064488*
Y064665*
X053188Y064015D02*
D01*
X052814Y064704D02*
X053759Y065649D01*
Y067106*
X052814Y064330D02*
Y064704D01*
X052263Y065196D02*
X052814Y065748D01*
X052263Y064881D02*
Y065196D01*
X051948Y064881D02*
Y065452D01*
X052086Y065590*
Y065748*
X046200Y068484D02*
X047755D01*
X049507Y064015D02*
X049803D01*
X050236Y063582*
X050374Y060787D02*
Y061574D01*
Y060787D02*
D01*
X051948Y061259D02*
Y061574D01*
Y061259D02*
X052401Y060807D01*
Y060570D02*
Y060807D01*
X051633Y060728D02*
Y061574D01*
Y060728D02*
X052381Y059980D01*
Y059921D02*
Y059980D01*
X052716Y059389D02*
X052933Y059606D01*
Y060905*
X052263Y061574D02*
X052933Y060905D01*
X051771Y063582D02*
X052066Y063287D01*
X050236Y063582D02*
X051771D01*
G54D35*
X042196Y065170D02*
X042736Y065709D01*
X043346Y073287D02*
X043937D01*
X042196Y072137D02*
X043346Y073287D01*
X042196Y068170D02*
Y072137D01*
X046200Y071141D02*
X046456Y071397D01*
X056614Y058070D02*
X056633Y058090D01*
X054527Y061627D02*
Y062165D01*
X054251Y062440D02*
X054527Y062165D01*
X052618Y062440D02*
X054251D01*
X054527Y063051D02*
Y063549D01*
X054232Y062755D02*
X054527Y063051D01*
X052618Y062755D02*
X054232D01*
X045393Y045177D02*
X045635Y044935D01*
Y044330D02*
Y044935D01*
X040334Y073228D02*
X042519Y075413D01*
X040334Y051032D02*
Y073228D01*
Y051032D02*
X041196Y050170D01*
X042972Y077322D02*
X043346Y077696D01*
X042972Y076978D02*
Y077322D01*
X043346Y077696D02*
X052224D01*
X047342Y075257D02*
Y077657D01*
X052224Y077696D02*
X052578Y077342D01*
X047342Y075257D02*
X047438Y075161D01*
X051200Y058111D02*
X052695D01*
X052696Y058110*
X041196Y068233D02*
Y072397D01*
X045137Y067362D02*
D01*
X045531*
X045177Y076948D02*
X045612D01*
X055866Y076968D02*
X056309D01*
X053188D02*
X053198Y076978D01*
X050511Y076968D02*
X050970D01*
X047854D02*
X048301D01*
X051948Y061574D02*
D01*
X049153Y062440D02*
X049507D01*
X046219Y074370D02*
Y075157D01*
X044271Y073838D02*
X045137D01*
X045669Y074370*
X043937Y073503D02*
X044271Y073838D01*
X043937Y073287D02*
Y073503D01*
X052322Y072816D02*
Y073595D01*
X052874Y073596D02*
Y075157D01*
X044487Y070019D02*
X044488Y070018D01*
Y069251D02*
Y070018D01*
X043937Y068484D02*
X043938Y068485D01*
Y069251*
X045531Y067362D02*
Y067389D01*
X046456Y071397D02*
Y071830D01*
X043937Y064098D02*
Y064822D01*
Y062646D02*
Y063371D01*
Y061196D02*
X043938Y061195D01*
X043937Y059745D02*
Y060469D01*
Y061196D02*
Y061920D01*
X044488Y074370D02*
Y075175D01*
X050354Y056515D02*
Y056673D01*
X044487Y068484D02*
X044921D01*
X044940Y068464*
X052814Y063385D02*
X053248D01*
X043169Y074370D02*
X043938D01*
X041196Y072397D02*
X043169Y074370D01*
X042736Y067913D02*
X043307Y068484D01*
X043937*
X042736Y065709D02*
Y067913D01*
X051161Y064173D02*
X051318Y064330D01*
Y064881*
X047362Y071909D02*
X047814D01*
X048188Y072283*
X052324Y075157D02*
Y075355D01*
X052578Y075610*
Y077342*
X043938Y067362D02*
Y067560D01*
X044291Y067913*
X045255*
X045650Y068308*
Y068484*
X057657Y058129D02*
X058444D01*
X058740Y057834*
Y057203D02*
Y057834D01*
Y056535D02*
Y056653D01*
X058543Y056338D02*
X058740Y056535D01*
X057797Y057344D02*
X057814Y057362D01*
X058641Y056535D02*
X058740D01*
X058562Y055354D02*
X058582D01*
X043720Y076712D02*
Y076978D01*
X043091Y076083D02*
X043720Y076712D01*
X043091Y075964D02*
Y076083D01*
X044488Y074370D02*
X044901D01*
X046200Y068484D02*
Y070019D01*
X051318Y060826D02*
Y061574D01*
X051161Y060669D02*
X051318Y060826D01*
G54D36*
X047322Y043267D02*
X047795Y042795D01*
X044836Y043267D02*
X047322D01*
X051732Y043956D02*
Y044311D01*
X051039Y045003D02*
X051732Y044311D01*
X047224Y041771D02*
X047696Y041299D01*
Y040969D02*
Y041299D01*
Y040969D02*
X048307D01*
X046763Y040421D02*
X046870D01*
X046176Y041008D02*
X046763Y040421D01*
X046176Y041008D02*
Y042242D01*
X047421Y051889D02*
X047814D01*
X046555Y052755D02*
X047421Y051889D01*
X044856Y052755D02*
X046555D01*
X044842Y040905D02*
X044908Y040971D01*
X045782*
X046001*
X046871Y040419D02*
X048307D01*
X046135Y042283D02*
X046176Y042242D01*
X046135Y042053D02*
Y042283D01*
X045135D02*
Y043250D01*
X043937Y042368D02*
X044836Y043267D01*
X048964Y075964D02*
X049350D01*
X046303D02*
X046692D01*
X043641D02*
X044015D01*
X043937Y051836D02*
X044856Y052755D01*
X057643Y065032D02*
X058176D01*
X058484Y064724*
X058622Y064586*
X051039Y045003D02*
Y045688D01*
G54D37*
X058793Y053031D02*
X059676Y053914D01*
Y060708*
X057637Y060669D02*
X059637D01*
X059676Y060708*
Y071318*
G54D38*
X048818Y074112D02*
X049349D01*
X045314Y066317D02*
X045864D01*
X044487Y071856D02*
Y073287D01*
X044488Y072572D02*
X044498Y072582D01*
X045437*
X043938Y071141D02*
Y072572D01*
X045964Y072205D02*
X046456D01*
X045964D02*
Y072811D01*
X045650Y073125D02*
X045964Y072811D01*
G54D39*
X045413Y071141D02*
X045437Y071165D01*
Y071830*
X044488Y071141D02*
X045413D01*
X045650*
G54D40*
X049585Y075157D02*
X050078D01*
X050629*
X049838Y074488D02*
X050078Y074728D01*
Y075157*
X051219Y073720D02*
Y075157D01*
X047440Y073701D02*
Y074429D01*
X043937Y065906D02*
Y066633D01*
X047656Y065905D02*
Y067342D01*
X046574Y066933D02*
Y067362D01*
X046334Y066692D02*
X046574Y066933D01*
X046081Y067362D02*
X046574D01*
X047656Y065532D02*
Y065905D01*
Y065532D02*
X047657Y065531D01*
X046574Y067362D02*
X047125D01*
X047675D02*
Y067737D01*
X047657Y067755D02*
X047675Y067737D01*
G54D41*
X053208Y063385D02*
X053248D01*
G54D42*
X056963Y072431D02*
X057387Y072855D01*
X058659*
X059676Y071839*
Y071318D02*
Y071839D01*
X056982Y065246D02*
X057405Y065669D01*
X058129*
X058582Y066122*
X059645*
G54D43*
X041226Y046204D03*
X042196Y047174D03*
X041196D03*
X042186Y048174D03*
X041186D03*
X042196Y049174D03*
X042226Y044204D03*
X041226D03*
X042226Y045204D03*
X041226D03*
X042196Y056174D03*
Y052174D03*
Y057174D03*
Y059174D03*
Y060174D03*
Y061174D03*
Y062174D03*
Y064174D03*
Y066174D03*
Y068174D03*
X041196Y051174D03*
Y052174D03*
Y055174D03*
Y056174D03*
Y057174D03*
Y058174D03*
Y059174D03*
Y060174D03*
Y063174D03*
Y065174D03*
Y066174D03*
Y067174D03*
X042196D03*
X041196Y061174D03*
Y062174D03*
X042196Y065174D03*
X041196Y064174D03*
X042196Y063174D03*
Y058174D03*
Y055174D03*
X041196Y054174D03*
X042196D03*
X041196Y053174D03*
X042196D03*
Y051174D03*
X041196Y050174D03*
X042196D03*
X041196Y049174D03*
X042226Y046204D03*
G54D44*
X041196Y068174D03*
G54D45*
X043897Y058720D03*
X052165Y053641D03*
X049330D03*
X049212Y056712D03*
X048877Y066397D03*
G54D46*
X043897Y057720D03*
Y056720D03*
X053165Y051641D03*
X052165D03*
X053165Y052641D03*
X052165D03*
X053165Y053641D03*
X056637Y059669D03*
Y060669D03*
X057637Y059669D03*
X057314Y046692D03*
X056314D03*
X050330Y049641D03*
X049330D03*
X050330Y050641D03*
X049330D03*
X050330Y051641D03*
X049330D03*
X050330Y052641D03*
X049330D03*
X050330Y053641D03*
X051039Y045688D03*
X052039D03*
X052078Y071614D03*
X051078D03*
X049212Y057712D03*
Y058712D03*
X048877Y068397D03*
Y067397D03*
X051039Y046692D03*
X052039D03*
G54D47*
X056963Y072431D03*
X057623Y071522D03*
X056555Y071870D03*
X056963Y071308D03*
X057623Y072217D03*
X057643Y065032D03*
X056982Y064123D03*
X056574Y064685D03*
X057643Y064337D03*
X056982Y065246D03*
G54D48*
X057145Y069507D03*
Y074232D03*
X057165Y067047D03*
Y062322D03*
G54D49*
X049732Y043956D03*
X050732D03*
X051732D03*
X052732D03*
X054732D03*
X055732D03*
G54D50*
X056732Y043956D03*
G54D51*
X057637Y060669D03*
X055314Y046692D03*
X050039Y045688D03*
X050078Y071614D03*
X050039Y046692D03*
G54D52*
X040550Y076580D03*
X059040Y041540D03*
Y076580D03*
X040550Y041540D03*
G54D53*
X049468Y059370D03*
X058070Y049055D03*
Y049566D03*
X057913Y051476D03*
X057893Y051948D03*
Y050984D03*
X054685Y045216D03*
X055452Y045925D03*
X058070Y049566D03*
X057874Y050019D03*
X057893Y050492D03*
X057106Y054192D03*
X056594D03*
X057303Y051299D03*
X056771D03*
X057086Y050196D03*
X057066Y050728D03*
X049094Y069921D03*
X054881Y051496D03*
Y051968D03*
Y052460D03*
Y052952D03*
Y053444D03*
Y053897D03*
X046082Y040255D03*
X044251Y040413D03*
X043090D03*
X044232Y040885D03*
Y041377D03*
X046338Y046692D03*
X045551Y056437D03*
X046299D03*
X047185Y059350D03*
X044862Y063366D03*
X045393Y060236D03*
X045374Y057224D03*
X047244Y060216D03*
X055728Y048720D03*
X056732D03*
X056259D03*
X047933Y050905D03*
X047834Y054350D03*
X047381D03*
X043877Y054389D03*
X044370D03*
X044606Y044350D03*
Y043858D03*
X044035Y044842D03*
X044074Y045374D03*
Y045826D03*
X044527Y044842D03*
X047736Y047677D03*
X047145D03*
X045984Y047716D03*
X046574D03*
X045393D03*
X044074D03*
X044665D03*
X043484D03*
X052500Y040295D03*
X050610Y040275D03*
X049173Y040295D03*
X049153Y040767D03*
X052500Y040728D03*
X050610D03*
X043090Y040885D03*
Y041358D03*
X047440Y045354D03*
Y045925D03*
X047992Y045177D03*
X046102Y048956D03*
X046692D03*
X047874D03*
X047283D03*
X044881D03*
X045472D03*
X044291D03*
X043700D03*
X046082Y045177D03*
X045374Y054291D03*
X042519Y075413D03*
X042559Y076988D03*
X047224Y041771D03*
X045393Y045177D03*
X045649Y041712D03*
X047578Y055610D03*
X045551Y063287D03*
X046732Y062145D03*
X051003Y062933D03*
X053937Y063248D03*
X044074Y055157D03*
Y055649D03*
X050807Y064212D03*
X050334D03*
X053937Y061968D03*
X052165Y067519D03*
Y068070D03*
X050846Y070531D03*
X053248Y072814D03*
X051929Y074370D03*
X051555Y075157D03*
X051535Y073759D03*
X050629Y074803D03*
X047106Y073937D03*
X045255Y073287D03*
X043562Y075177D03*
X045295Y075137D03*
X057342Y075964D03*
X054685Y075944D03*
X055866Y076968D03*
X053188D03*
X052027Y075964D03*
X050511Y076968D03*
X049350Y075964D03*
X047854Y076968D03*
X045177Y076948D03*
X046692Y075964D03*
X044015D03*
X053661Y064665D03*
X048641Y075137D03*
X045944Y072185D03*
X045864Y066317D03*
X049349Y074112D03*
X044803Y062637D03*
X044881Y064094D03*
X044803Y061200D03*
X044901Y059744D03*
X045137Y067362D03*
X047106Y066377D03*
X044940Y068464D03*
X043582Y070000D03*
X045295D03*
X045275Y069251D03*
X043582Y065925D03*
Y066614D03*
X047657Y067755D03*
Y065531D03*
X046811Y067027D03*
X043582Y072559D03*
X043543Y071141D03*
X043582Y071850D03*
X045137Y071437D03*
X046555Y071141D03*
X053759Y067106D03*
X052066Y063287D03*
X046377Y054291D03*
X051299Y064212D03*
X051023Y067145D03*
X053425Y069783D03*
X049370Y061673D03*
X052401Y060570D03*
X052381Y059921D03*
X045413Y061791D03*
X047283Y062814D03*
X047342Y061043D03*
Y064291D03*
X052066Y064015D03*
X049094Y071633D03*
X048208Y071948D03*
X049448Y072539D03*
X049881Y073444D03*
X048622Y062303D03*
X048346Y060787D03*
X049842Y061082D03*
X055629Y058877D03*
X056633Y058090D03*
X056614Y055098D03*
X052637Y058838D03*
X052854Y058070D03*
X052874Y055570D03*
X051712Y055078D03*
X057657Y058129D03*
X056299Y058877D03*
X055433Y058070D03*
X052047Y058838D03*
X047578Y055157D03*
X057814Y055354D03*
X058582D03*
X050255Y062933D03*
X050531Y062283D03*
X058543Y056338D03*
X055137Y055236D03*
X048287Y070275D03*
X051122Y056082D03*
X052066Y062480D03*
X054527Y063549D03*
Y061627D03*
X049566Y067834D03*
X058385Y071692D03*
Y070295D03*
X058622Y064586D03*
X058897Y065433D03*
X058877Y063602D03*
X044901Y074370D03*
X052814Y065748D03*
X052086D03*
X047657Y068484D03*
X051712Y059960D03*
X051161Y060669D03*
M02*